<?xml version="1.0" encoding="UTF-8"?>
<session version="1.0">
<refactoring comment="Move element &apos;MySimplePuzzleSolverTest.java&apos; to &apos;slidingpuzzle/test/edu.wm.cs.cs301.slidingpuzzle&apos;&#x0A;- Original project: &apos;slidingpuzzle&apos;&#x0A;- Destination element: &apos;slidingpuzzle/test/edu.wm.cs.cs301.slidingpuzzle&apos;&#x0A;- Original element: &apos;edu.wm.cs.cs301.slidingpuzzle.MySimplePuzzleSolverTest.java&apos;&#x0A;- Update references to refactored element" description="Move compilation unit" destination="/test&lt;edu.wm.cs.cs301.slidingpuzzle" element1="/src&lt;edu.wm.cs.cs301.slidingpuzzle{MySimplePuzzleSolverTest.java" files="0" flags="589830" folders="0" id="org.eclipse.jdt.ui.move" patterns="*" policy="org.eclipse.jdt.ui.moveResources" qualified="false" references="true" stamp="1411078883684" units="1" version="1.0"/>
</session>